%YAML 1.1
%TAG !u! tag:unity3d.com,2011:
--- !u!1 &702750732084423403
GameObject:
  m_ObjectHideFlags: 0
  m_CorrespondingSourceObject: {fileID: 0}
  m_PrefabInstance: {fileID: 0}
  m_PrefabAsset: {fileID: 0}
  serializedVersion: 6
  m_Component:
  - component: {fileID: 8968867700041480910}
  - component: {fileID: 9142008955735298935}
  m_Layer: 31
  m_Name: Pueblo Paleta
  m_TagString: Untagged
  m_Icon: {fileID: 0}
  m_NavMeshLayer: 0
  m_StaticEditorFlags: 0
  m_IsActive: 1
--- !u!4 &8968867700041480910
Transform:
  m_ObjectHideFlags: 0
  m_CorrespondingSourceObject: {fileID: 0}
  m_PrefabInstance: {fileID: 0}
  m_PrefabAsset: {fileID: 0}
  m_GameObject: {fileID: 702750732084423403}
  m_LocalRotation: {x: 0, y: 0, z: 0, w: 1}
  m_LocalPosition: {x: 0, y: 0, z: 0}
  m_LocalScale: {x: 1, y: 1, z: 1}
  m_Children:
  - {fileID: 6783968848339439201}
  m_Father: {fileID: 0}
  m_RootOrder: 0
  m_LocalEulerAnglesHint: {x: 0, y: 0, z: 0}
--- !u!156049354 &9142008955735298935
Grid:
  m_ObjectHideFlags: 0
  m_CorrespondingSourceObject: {fileID: 0}
  m_PrefabInstance: {fileID: 0}
  m_PrefabAsset: {fileID: 0}
  m_GameObject: {fileID: 702750732084423403}
  m_Enabled: 1
  m_CellSize: {x: 1, y: 1, z: 0}
  m_CellGap: {x: 0, y: 0, z: 0}
  m_CellLayout: 0
  m_CellSwizzle: 0
--- !u!1 &3941439917195224746
GameObject:
  m_ObjectHideFlags: 0
  m_CorrespondingSourceObject: {fileID: 0}
  m_PrefabInstance: {fileID: 0}
  m_PrefabAsset: {fileID: 0}
  serializedVersion: 6
  m_Component:
  - component: {fileID: 6783968848339439201}
  - component: {fileID: 6697213585025640263}
  - component: {fileID: 5040335308262974747}
  m_Layer: 0
  m_Name: Layer1
  m_TagString: Untagged
  m_Icon: {fileID: 0}
  m_NavMeshLayer: 0
  m_StaticEditorFlags: 0
  m_IsActive: 1
--- !u!4 &6783968848339439201
Transform:
  m_ObjectHideFlags: 0
  m_CorrespondingSourceObject: {fileID: 0}
  m_PrefabInstance: {fileID: 0}
  m_PrefabAsset: {fileID: 0}
  m_GameObject: {fileID: 3941439917195224746}
  m_LocalRotation: {x: -0, y: -0, z: -0, w: 1}
  m_LocalPosition: {x: 0, y: 0, z: 0}
  m_LocalScale: {x: 1, y: 1, z: 1}
  m_Children: []
  m_Father: {fileID: 8968867700041480910}
  m_RootOrder: 0
  m_LocalEulerAnglesHint: {x: 0, y: 0, z: 0}
--- !u!1839735485 &6697213585025640263
Tilemap:
  m_ObjectHideFlags: 0
  m_CorrespondingSourceObject: {fileID: 0}
  m_PrefabInstance: {fileID: 0}
  m_PrefabAsset: {fileID: 0}
  m_GameObject: {fileID: 3941439917195224746}
  m_Enabled: 1
  m_Tiles:
  - first: {x: -5, y: -9, z: 0}
    second:
      serializedVersion: 2
      m_TileIndex: 10
      m_TileSpriteIndex: 3
      m_TileMatrixIndex: 0
      m_TileColorIndex: 0
      m_TileObjectToInstantiateIndex: 65535
      dummyAlignment: 0
      m_AllTileFlags: 1073741825
  - first: {x: -4, y: -9, z: 0}
    second:
      serializedVersion: 2
      m_TileIndex: 9
      m_TileSpriteIndex: 2
      m_TileMatrixIndex: 0
      m_TileColorIndex: 0
      m_TileObjectToInstantiateIndex: 65535
      dummyAlignment: 0
      m_AllTileFlags: 1073741825
  - first: {x: -3, y: -9, z: 0}
    second:
      serializedVersion: 2
      m_TileIndex: 8
      m_TileSpriteIndex: 1
      m_TileMatrixIndex: 0
      m_TileColorIndex: 0
      m_TileObjectToInstantiateIndex: 65535
      dummyAlignment: 0
      m_AllTileFlags: 1073741825
  - first: {x: 1, y: -9, z: 0}
    second:
      serializedVersion: 2
      m_TileIndex: 122
      m_TileSpriteIndex: 70
      m_TileMatrixIndex: 0
      m_TileColorIndex: 0
      m_TileObjectToInstantiateIndex: 65535
      dummyAlignment: 0
      m_AllTileFlags: 1073741825
  - first: {x: 2, y: -9, z: 0}
    second:
      serializedVersion: 2
      m_TileIndex: 121
      m_TileSpriteIndex: 64
      m_TileMatrixIndex: 0
      m_TileColorIndex: 0
      m_TileObjectToInstantiateIndex: 65535
      dummyAlignment: 0
      m_AllTileFlags: 1073741825
  - first: {x: 3, y: -9, z: 0}
    second:
      serializedVersion: 2
      m_TileIndex: 120
      m_TileSpriteIndex: 32
      m_TileMatrixIndex: 0
      m_TileColorIndex: 0
      m_TileObjectToInstantiateIndex: 65535
      dummyAlignment: 0
      m_AllTileFlags: 1073741825
  - first: {x: 5, y: -9, z: 0}
    second:
      serializedVersion: 2
      m_TileIndex: 111
      m_TileSpriteIndex: 31
      m_TileMatrixIndex: 0
      m_TileColorIndex: 0
      m_TileObjectToInstantiateIndex: 65535
      dummyAlignment: 0
      m_AllTileFlags: 1073741825
  - first: {x: 6, y: -9, z: 0}
    second:
      serializedVersion: 2
      m_TileIndex: 110
      m_TileSpriteIndex: 30
      m_TileMatrixIndex: 0
      m_TileColorIndex: 0
      m_TileObjectToInstantiateIndex: 65535
      dummyAlignment: 0
      m_AllTileFlags: 1073741825
  - first: {x: 8, y: -9, z: 0}
    second:
      serializedVersion: 2
      m_TileIndex: 106
      m_TileSpriteIndex: 29
      m_TileMatrixIndex: 0
      m_TileColorIndex: 0
      m_TileObjectToInstantiateIndex: 65535
      dummyAlignment: 0
      m_AllTileFlags: 1073741825
  - first: {x: 9, y: -9, z: 0}
    second:
      serializedVersion: 2
      m_TileIndex: 105
      m_TileSpriteIndex: 28
      m_TileMatrixIndex: 0
      m_TileColorIndex: 0
      m_TileObjectToInstantiateIndex: 65535
      dummyAlignment: 0
      m_AllTileFlags: 1073741825
  - first: {x: 12, y: -9, z: 0}
    second:
      serializedVersion: 2
      m_TileIndex: 39
      m_TileSpriteIndex: 73
      m_TileMatrixIndex: 0
      m_TileColorIndex: 0
      m_TileObjectToInstantiateIndex: 65535
      dummyAlignment: 0
      m_AllTileFlags: 1073741825
  - first: {x: 13, y: -9, z: 0}
    second:
      serializedVersion: 2
      m_TileIndex: 38
      m_TileSpriteIndex: 37
      m_TileMatrixIndex: 0
      m_TileColorIndex: 0
      m_TileObjectToInstantiateIndex: 65535
      dummyAlignment: 0
      m_AllTileFlags: 1073741825
  - first: {x: 14, y: -9, z: 0}
    second:
      serializedVersion: 2
      m_TileIndex: 37
      m_TileSpriteIndex: 5
      m_TileMatrixIndex: 0
      m_TileColorIndex: 0
      m_TileObjectToInstantiateIndex: 65535
      dummyAlignment: 0
      m_AllTileFlags: 1073741825
  - first: {x: -5, y: -8, z: 0}
    second:
      serializedVersion: 2
      m_TileIndex: 26
      m_TileSpriteIndex: 26
      m_TileMatrixIndex: 0
      m_TileColorIndex: 0
      m_TileObjectToInstantiateIndex: 65535
      dummyAlignment: 0
      m_AllTileFlags: 1073741825
  - first: {x: -4, y: -8, z: 0}
    second:
      serializedVersion: 2
      m_TileIndex: 25
      m_TileSpriteIndex: 25
      m_TileMatrixIndex: 0
      m_TileColorIndex: 0
      m_TileObjectToInstantiateIndex: 65535
      dummyAlignment: 0
      m_AllTileFlags: 1073741825
  - first: {x: -3, y: -8, z: 0}
    second:
      serializedVersion: 2
      m_TileIndex: 24
      m_TileSpriteIndex: 24
      m_TileMatrixIndex: 0
      m_TileColorIndex: 0
      m_TileObjectToInstantiateIndex: 65535
      dummyAlignment: 0
      m_AllTileFlags: 1073741825
  - first: {x: 1, y: -8, z: 0}
    second:
      serializedVersion: 2
      m_TileIndex: 104
      m_TileSpriteIndex: 21
      m_TileMatrixIndex: 0
      m_TileColorIndex: 0
      m_TileObjectToInstantiateIndex: 65535
      dummyAlignment: 0
      m_AllTileFlags: 1073741825
  - first: {x: 2, y: -8, z: 0}
    second:
      serializedVersion: 2
      m_TileIndex: 95
      m_TileSpriteIndex: 20
      m_TileMatrixIndex: 0
      m_TileColorIndex: 0
      m_TileObjectToInstantiateIndex: 65535
      dummyAlignment: 0
      m_AllTileFlags: 1073741825
  - first: {x: 3, y: -8, z: 0}
    second:
      serializedVersion: 2
      m_TileIndex: 94
      m_TileSpriteIndex: 19
      m_TileMatrixIndex: 0
      m_TileColorIndex: 0
      m_TileObjectToInstantiateIndex: 65535
      dummyAlignment: 0
      m_AllTileFlags: 1073741825
  - first: {x: 5, y: -8, z: 0}
    second:
      serializedVersion: 2
      m_TileIndex: 90
      m_TileSpriteIndex: 18
      m_TileMatrixIndex: 0
      m_TileColorIndex: 0
      m_TileObjectToInstantiateIndex: 65535
      dummyAlignment: 0
      m_AllTileFlags: 1073741825
  - first: {x: 6, y: -8, z: 0}
    second:
      serializedVersion: 2
      m_TileIndex: 89
      m_TileSpriteIndex: 17
      m_TileMatrixIndex: 0
      m_TileColorIndex: 0
      m_TileObjectToInstantiateIndex: 65535
      dummyAlignment: 0
      m_AllTileFlags: 1073741825
  - first: {x: 8, y: -8, z: 0}
    second:
      serializedVersion: 2
      m_TileIndex: 88
      m_TileSpriteIndex: 10
      m_TileMatrixIndex: 0
      m_TileColorIndex: 0
      m_TileObjectToInstantiateIndex: 65535
      dummyAlignment: 0
      m_AllTileFlags: 1073741825
  - first: {x: 9, y: -8, z: 0}
    second:
      serializedVersion: 2
      m_TileIndex: 23
      m_TileSpriteIndex: 9
      m_TileMatrixIndex: 0
      m_TileColorIndex: 0
      m_TileObjectToInstantiateIndex: 65535
      dummyAlignment: 0
      m_AllTileFlags: 1073741825
  - first: {x: 12, y: -8, z: 0}
    second:
      serializedVersion: 2
      m_TileIndex: 55
      m_TileSpriteIndex: 56
      m_TileMatrixIndex: 0
      m_TileColorIndex: 0
      m_TileObjectToInstantiateIndex: 65535
      dummyAlignment: 0
      m_AllTileFlags: 1073741825
  - first: {x: 13, y: -8, z: 0}
    second:
      serializedVersion: 2
      m_TileIndex: 54
      m_TileSpriteIndex: 27
      m_TileMatrixIndex: 0
      m_TileColorIndex: 0
      m_TileObjectToInstantiateIndex: 65535
      dummyAlignment: 0
      m_AllTileFlags: 1073741825
  - first: {x: 14, y: -8, z: 0}
    second:
      serializedVersion: 2
      m_TileIndex: 53
      m_TileSpriteIndex: 16
      m_TileMatrixIndex: 0
      m_TileColorIndex: 0
      m_TileObjectToInstantiateIndex: 65535
      dummyAlignment: 0
      m_AllTileFlags: 1073741825
  - first: {x: -5, y: -7, z: 0}
    second:
      serializedVersion: 2
      m_TileIndex: 42
      m_TileSpriteIndex: 87
      m_TileMatrixIndex: 0
      m_TileColorIndex: 0
      m_TileObjectToInstantiateIndex: 65535
      dummyAlignment: 0
      m_AllTileFlags: 1073741825
  - first: {x: -4, y: -7, z: 0}
    second:
      serializedVersion: 2
      m_TileIndex: 41
      m_TileSpriteIndex: 86
      m_TileMatrixIndex: 0
      m_TileColorIndex: 0
      m_TileObjectToInstantiateIndex: 65535
      dummyAlignment: 0
      m_AllTileFlags: 1073741825
  - first: {x: -3, y: -7, z: 0}
    second:
      serializedVersion: 2
      m_TileIndex: 40
      m_TileSpriteIndex: 78
      m_TileMatrixIndex: 0
      m_TileColorIndex: 0
      m_TileObjectToInstantiateIndex: 65535
      dummyAlignment: 0
      m_AllTileFlags: 1073741825
  - first: {x: 1, y: -7, z: 0}
    second:
      serializedVersion: 2
      m_TileIndex: 22
      m_TileSpriteIndex: 8
      m_TileMatrixIndex: 0
      m_TileColorIndex: 0
      m_TileObjectToInstantiateIndex: 65535
      dummyAlignment: 0
      m_AllTileFlags: 1073741825
  - first: {x: 2, y: -7, z: 0}
    second:
      serializedVersion: 2
      m_TileIndex: 7
      m_TileSpriteIndex: 7
      m_TileMatrixIndex: 0
      m_TileColorIndex: 0
      m_TileObjectToInstantiateIndex: 65535
      dummyAlignment: 0
      m_AllTileFlags: 1073741825
  - first: {x: 3, y: -7, z: 0}
    second:
      serializedVersion: 2
      m_TileIndex: 6
      m_TileSpriteIndex: 6
      m_TileMatrixIndex: 0
      m_TileColorIndex: 0
      m_TileObjectToInstantiateIndex: 65535
      dummyAlignment: 0
      m_AllTileFlags: 1073741825
  - first: {x: 12, y: -7, z: 0}
    second:
      serializedVersion: 2
      m_TileIndex: 71
      m_TileSpriteIndex: 43
      m_TileMatrixIndex: 0
      m_TileColorIndex: 0
      m_TileObjectToInstantiateIndex: 65535
      dummyAlignment: 0
      m_AllTileFlags: 1073741825
  - first: {x: 13, y: -7, z: 0}
    second:
      serializedVersion: 2
      m_TileIndex: 70
      m_TileSpriteIndex: 40
      m_TileMatrixIndex: 0
      m_TileColorIndex: 0
      m_TileObjectToInstantiateIndex: 65535
      dummyAlignment: 0
      m_AllTileFlags: 1073741825
  - first: {x: 14, y: -7, z: 0}
    second:
      serializedVersion: 2
      m_TileIndex: 69
      m_TileSpriteIndex: 39
      m_TileMatrixIndex: 0
      m_TileColorIndex: 0
      m_TileObjectToInstantiateIndex: 65535
      dummyAlignment: 0
      m_AllTileFlags: 1073741825
  - first: {x: 12, y: -5, z: 0}
    second:
      serializedVersion: 2
      m_TileIndex: 36
      m_TileSpriteIndex: 38
      m_TileMatrixIndex: 0
      m_TileColorIndex: 0
      m_TileObjectToInstantiateIndex: 65535
      dummyAlignment: 0
      m_AllTileFlags: 1073741825
  - first: {x: 13, y: -5, z: 0}
    second:
      serializedVersion: 2
      m_TileIndex: 35
      m_TileSpriteIndex: 36
      m_TileMatrixIndex: 0
      m_TileColorIndex: 0
      m_TileObjectToInstantiateIndex: 65535
      dummyAlignment: 0
      m_AllTileFlags: 1073741825
  - first: {x: 14, y: -5, z: 0}
    second:
      serializedVersion: 2
      m_TileIndex: 34
      m_TileSpriteIndex: 35
      m_TileMatrixIndex: 0
      m_TileColorIndex: 0
      m_TileObjectToInstantiateIndex: 65535
      dummyAlignment: 0
      m_AllTileFlags: 1073741825
  - first: {x: -3, y: -4, z: 0}
    second:
      serializedVersion: 2
      m_TileIndex: 1
      m_TileSpriteIndex: 11
      m_TileMatrixIndex: 0
      m_TileColorIndex: 0
      m_TileObjectToInstantiateIndex: 65535
      dummyAlignment: 0
      m_AllTileFlags: 1073741825
  - first: {x: -2, y: -4, z: 0}
    second:
      serializedVersion: 2
      m_TileIndex: 0
      m_TileSpriteIndex: 0
      m_TileMatrixIndex: 0
      m_TileColorIndex: 0
      m_TileObjectToInstantiateIndex: 65535
      dummyAlignment: 0
      m_AllTileFlags: 1073741825
  - first: {x: 2, y: -4, z: 0}
    second:
      serializedVersion: 2
      m_TileIndex: 5
      m_TileSpriteIndex: 71
      m_TileMatrixIndex: 0
      m_TileColorIndex: 0
      m_TileObjectToInstantiateIndex: 65535
      dummyAlignment: 0
      m_AllTileFlags: 1073741825
  - first: {x: 3, y: -4, z: 0}
    second:
      serializedVersion: 2
      m_TileIndex: 21
      m_TileSpriteIndex: 74
      m_TileMatrixIndex: 0
      m_TileColorIndex: 0
      m_TileObjectToInstantiateIndex: 65535
      dummyAlignment: 0
      m_AllTileFlags: 1073741825
  - first: {x: 4, y: -4, z: 0}
    second:
      serializedVersion: 2
      m_TileIndex: 20
      m_TileSpriteIndex: 55
      m_TileMatrixIndex: 0
      m_TileColorIndex: 0
      m_TileObjectToInstantiateIndex: 65535
      dummyAlignment: 0
      m_AllTileFlags: 1073741825
  - first: {x: 5, y: -4, z: 0}
    second:
      serializedVersion: 2
      m_TileIndex: 19
      m_TileSpriteIndex: 54
      m_TileMatrixIndex: 0
      m_TileColorIndex: 0
      m_TileObjectToInstantiateIndex: 65535
      dummyAlignment: 0
      m_AllTileFlags: 1073741825
  - first: {x: 6, y: -4, z: 0}
    second:
      serializedVersion: 2
      m_TileIndex: 18
      m_TileSpriteIndex: 53
      m_TileMatrixIndex: 0
      m_TileColorIndex: 0
      m_TileObjectToInstantiateIndex: 65535
      dummyAlignment: 0
      m_AllTileFlags: 1073741825
  - first: {x: 12, y: -4, z: 0}
    second:
      serializedVersion: 2
      m_TileIndex: 52
      m_TileSpriteIndex: 77
      m_TileMatrixIndex: 0
      m_TileColorIndex: 0
      m_TileObjectToInstantiateIndex: 65535
      dummyAlignment: 0
      m_AllTileFlags: 1073741825
  - first: {x: 13, y: -4, z: 0}
    second:
      serializedVersion: 2
      m_TileIndex: 51
      m_TileSpriteIndex: 51
      m_TileMatrixIndex: 0
      m_TileColorIndex: 0
      m_TileObjectToInstantiateIndex: 65535
      dummyAlignment: 0
      m_AllTileFlags: 1073741825
  - first: {x: 14, y: -4, z: 0}
    second:
      serializedVersion: 2
      m_TileIndex: 50
      m_TileSpriteIndex: 50
      m_TileMatrixIndex: 0
      m_TileColorIndex: 0
      m_TileObjectToInstantiateIndex: 65535
      dummyAlignment: 0
      m_AllTileFlags: 1073741825
  - first: {x: -5, y: -3, z: 0}
    second:
      serializedVersion: 2
      m_TileIndex: 17
      m_TileSpriteIndex: 23
      m_TileMatrixIndex: 0
      m_TileColorIndex: 0
      m_TileObjectToInstantiateIndex: 65535
      dummyAlignment: 0
      m_AllTileFlags: 1073741825
  - first: {x: -4, y: -3, z: 0}
    second:
      serializedVersion: 2
      m_TileIndex: 16
      m_TileSpriteIndex: 22
      m_TileMatrixIndex: 0
      m_TileColorIndex: 0
      m_TileObjectToInstantiateIndex: 65535
      dummyAlignment: 0
      m_AllTileFlags: 1073741825
  - first: {x: -3, y: -3, z: 0}
    second:
      serializedVersion: 2
      m_TileIndex: 15
      m_TileSpriteIndex: 15
      m_TileMatrixIndex: 0
      m_TileColorIndex: 0
      m_TileObjectToInstantiateIndex: 65535
      dummyAlignment: 0
      m_AllTileFlags: 1073741825
  - first: {x: -2, y: -3, z: 0}
    second:
      serializedVersion: 2
      m_TileIndex: 14
      m_TileSpriteIndex: 14
      m_TileMatrixIndex: 0
      m_TileColorIndex: 0
      m_TileObjectToInstantiateIndex: 65535
      dummyAlignment: 0
      m_AllTileFlags: 1073741825
  - first: {x: 12, y: -3, z: 0}
    second:
      serializedVersion: 2
      m_TileIndex: 68
      m_TileSpriteIndex: 105
      m_TileMatrixIndex: 0
      m_TileColorIndex: 0
      m_TileObjectToInstantiateIndex: 65535
      dummyAlignment: 0
      m_AllTileFlags: 1073741825
  - first: {x: 13, y: -3, z: 0}
    second:
      serializedVersion: 2
      m_TileIndex: 67
      m_TileSpriteIndex: 104
      m_TileMatrixIndex: 0
      m_TileColorIndex: 0
      m_TileObjectToInstantiateIndex: 65535
      dummyAlignment: 0
      m_AllTileFlags: 1073741825
  - first: {x: 14, y: -3, z: 0}
    second:
      serializedVersion: 2
      m_TileIndex: 66
      m_TileSpriteIndex: 90
      m_TileMatrixIndex: 0
      m_TileColorIndex: 0
      m_TileObjectToInstantiateIndex: 65535
      dummyAlignment: 0
      m_AllTileFlags: 1073741825
  - first: {x: -5, y: -2, z: 0}
    second:
      serializedVersion: 2
      m_TileIndex: 33
      m_TileSpriteIndex: 46
      m_TileMatrixIndex: 0
      m_TileColorIndex: 0
      m_TileObjectToInstantiateIndex: 65535
      dummyAlignment: 0
      m_AllTileFlags: 1073741825
  - first: {x: -4, y: -2, z: 0}
    second:
      serializedVersion: 2
      m_TileIndex: 32
      m_TileSpriteIndex: 48
      m_TileMatrixIndex: 0
      m_TileColorIndex: 0
      m_TileObjectToInstantiateIndex: 65535
      dummyAlignment: 0
      m_AllTileFlags: 1073741825
  - first: {x: -3, y: -2, z: 0}
    second:
      serializedVersion: 2
      m_TileIndex: 31
      m_TileSpriteIndex: 75
      m_TileMatrixIndex: 0
      m_TileColorIndex: 0
      m_TileObjectToInstantiateIndex: 65535
      dummyAlignment: 0
      m_AllTileFlags: 1073741825
  - first: {x: -2, y: -2, z: 0}
    second:
      serializedVersion: 2
      m_TileIndex: 30
      m_TileSpriteIndex: 69
      m_TileMatrixIndex: 0
      m_TileColorIndex: 0
      m_TileObjectToInstantiateIndex: 65535
      dummyAlignment: 0
      m_AllTileFlags: 1073741825
  - first: {x: 4, y: -2, z: 0}
    second:
      serializedVersion: 2
      m_TileIndex: 74
      m_TileSpriteIndex: 110
      m_TileMatrixIndex: 0
      m_TileColorIndex: 0
      m_TileObjectToInstantiateIndex: 65535
      dummyAlignment: 0
      m_AllTileFlags: 1073741825
  - first: {x: 5, y: -2, z: 0}
    second:
      serializedVersion: 2
      m_TileIndex: 73
      m_TileSpriteIndex: 108
      m_TileMatrixIndex: 0
      m_TileColorIndex: 0
      m_TileObjectToInstantiateIndex: 65535
      dummyAlignment: 0
      m_AllTileFlags: 1073741825
  - first: {x: 6, y: -2, z: 0}
    second:
      serializedVersion: 2
      m_TileIndex: 72
      m_TileSpriteIndex: 107
      m_TileMatrixIndex: 0
      m_TileColorIndex: 0
      m_TileObjectToInstantiateIndex: 65535
      dummyAlignment: 0
      m_AllTileFlags: 1073741825
  - first: {x: -5, y: -1, z: 0}
    second:
      serializedVersion: 2
      m_TileIndex: 49
      m_TileSpriteIndex: 34
      m_TileMatrixIndex: 0
      m_TileColorIndex: 0
      m_TileObjectToInstantiateIndex: 65535
      dummyAlignment: 0
      m_AllTileFlags: 1073741825
  - first: {x: -4, y: -1, z: 0}
    second:
      serializedVersion: 2
      m_TileIndex: 48
      m_TileSpriteIndex: 58
      m_TileMatrixIndex: 0
      m_TileColorIndex: 0
      m_TileObjectToInstantiateIndex: 65535
      dummyAlignment: 0
      m_AllTileFlags: 1073741825
  - first: {x: -3, y: -1, z: 0}
    second:
      serializedVersion: 2
      m_TileIndex: 47
      m_TileSpriteIndex: 106
      m_TileMatrixIndex: 0
      m_TileColorIndex: 0
      m_TileObjectToInstantiateIndex: 65535
      dummyAlignment: 0
      m_AllTileFlags: 1073741825
  - first: {x: -2, y: -1, z: 0}
    second:
      serializedVersion: 2
      m_TileIndex: 46
      m_TileSpriteIndex: 113
      m_TileMatrixIndex: 0
      m_TileColorIndex: 0
      m_TileObjectToInstantiateIndex: 65535
      dummyAlignment: 0
      m_AllTileFlags: 1073741825
  - first: {x: 4, y: -1, z: 0}
    second:
      serializedVersion: 2
      m_TileIndex: 58
      m_TileSpriteIndex: 103
      m_TileMatrixIndex: 0
      m_TileColorIndex: 0
      m_TileObjectToInstantiateIndex: 65535
      dummyAlignment: 0
      m_AllTileFlags: 1073741825
  - first: {x: 5, y: -1, z: 0}
    second:
      serializedVersion: 2
      m_TileIndex: 57
      m_TileSpriteIndex: 84
      m_TileMatrixIndex: 0
      m_TileColorIndex: 0
      m_TileObjectToInstantiateIndex: 65535
      dummyAlignment: 0
      m_AllTileFlags: 1073741825
  - first: {x: 6, y: -1, z: 0}
    second:
      serializedVersion: 2
      m_TileIndex: 56
      m_TileSpriteIndex: 83
      m_TileMatrixIndex: 0
      m_TileColorIndex: 0
      m_TileObjectToInstantiateIndex: 65535
      dummyAlignment: 0
      m_AllTileFlags: 1073741825
  - first: {x: 12, y: -1, z: 0}
    second:
      serializedVersion: 2
      m_TileIndex: 87
      m_TileSpriteIndex: 96
      m_TileMatrixIndex: 0
      m_TileColorIndex: 0
      m_TileObjectToInstantiateIndex: 65535
      dummyAlignment: 0
      m_AllTileFlags: 1073741825
  - first: {x: 13, y: -1, z: 0}
    second:
      serializedVersion: 2
      m_TileIndex: 86
      m_TileSpriteIndex: 88
      m_TileMatrixIndex: 0
      m_TileColorIndex: 0
      m_TileObjectToInstantiateIndex: 65535
      dummyAlignment: 0
      m_AllTileFlags: 1073741825
  - first: {x: 14, y: -1, z: 0}
    second:
      serializedVersion: 2
      m_TileIndex: 85
      m_TileSpriteIndex: 85
      m_TileMatrixIndex: 0
      m_TileColorIndex: 0
      m_TileObjectToInstantiateIndex: 65535
      dummyAlignment: 0
      m_AllTileFlags: 1073741825
  - first: {x: -5, y: 0, z: 0}
    second:
      serializedVersion: 2
      m_TileIndex: 65
      m_TileSpriteIndex: 68
      m_TileMatrixIndex: 0
      m_TileColorIndex: 0
      m_TileObjectToInstantiateIndex: 65535
      dummyAlignment: 0
      m_AllTileFlags: 1073741825
  - first: {x: -4, y: 0, z: 0}
    second:
      serializedVersion: 2
      m_TileIndex: 64
      m_TileSpriteIndex: 67
      m_TileMatrixIndex: 0
      m_TileColorIndex: 0
      m_TileObjectToInstantiateIndex: 65535
      dummyAlignment: 0
      m_AllTileFlags: 1073741825
  - first: {x: -3, y: 0, z: 0}
    second:
      serializedVersion: 2
      m_TileIndex: 63
      m_TileSpriteIndex: 92
      m_TileMatrixIndex: 0
      m_TileColorIndex: 0
      m_TileObjectToInstantiateIndex: 65535
      dummyAlignment: 0
      m_AllTileFlags: 1073741825
  - first: {x: -2, y: 0, z: 0}
    second:
      serializedVersion: 2
      m_TileIndex: 62
      m_TileSpriteIndex: 112
      m_TileMatrixIndex: 0
      m_TileColorIndex: 0
      m_TileObjectToInstantiateIndex: 65535
      dummyAlignment: 0
      m_AllTileFlags: 1073741825
  - first: {x: 0, y: 0, z: 0}
    second:
      serializedVersion: 2
      m_TileIndex: 125
      m_TileSpriteIndex: 124
      m_TileMatrixIndex: 0
      m_TileColorIndex: 0
      m_TileObjectToInstantiateIndex: 65535
      dummyAlignment: 0
      m_AllTileFlags: 1073741825
  - first: {x: 1, y: 0, z: 0}
    second:
      serializedVersion: 2
      m_TileIndex: 124
      m_TileSpriteIndex: 123
      m_TileMatrixIndex: 0
      m_TileColorIndex: 0
      m_TileObjectToInstantiateIndex: 65535
      dummyAlignment: 0
      m_AllTileFlags: 1073741825
  - first: {x: 2, y: 0, z: 0}
    second:
      serializedVersion: 2
      m_TileIndex: 123
      m_TileSpriteIndex: 122
      m_TileMatrixIndex: 0
      m_TileColorIndex: 0
      m_TileObjectToInstantiateIndex: 65535
      dummyAlignment: 0
      m_AllTileFlags: 1073741825
  - first: {x: 12, y: 0, z: 0}
    second:
      serializedVersion: 2
      m_TileIndex: 103
      m_TileSpriteIndex: 99
      m_TileMatrixIndex: 0
      m_TileColorIndex: 0
      m_TileObjectToInstantiateIndex: 65535
      dummyAlignment: 0
      m_AllTileFlags: 1073741825
  - first: {x: 13, y: 0, z: 0}
    second:
      serializedVersion: 2
      m_TileIndex: 102
      m_TileSpriteIndex: 97
      m_TileMatrixIndex: 0
      m_TileColorIndex: 0
      m_TileObjectToInstantiateIndex: 65535
      dummyAlignment: 0
      m_AllTileFlags: 1073741825
  - first: {x: 14, y: 0, z: 0}
    second:
      serializedVersion: 2
      m_TileIndex: 101
      m_TileSpriteIndex: 94
      m_TileMatrixIndex: 0
      m_TileColorIndex: 0
      m_TileObjectToInstantiateIndex: 65535
      dummyAlignment: 0
      m_AllTileFlags: 1073741825
  - first: {x: -5, y: 1, z: 0}
    second:
      serializedVersion: 2
      m_TileIndex: 81
      m_TileSpriteIndex: 91
      m_TileMatrixIndex: 0
      m_TileColorIndex: 0
      m_TileObjectToInstantiateIndex: 65535
      dummyAlignment: 0
      m_AllTileFlags: 1073741825
  - first: {x: -4, y: 1, z: 0}
    second:
      serializedVersion: 2
      m_TileIndex: 80
      m_TileSpriteIndex: 81
      m_TileMatrixIndex: 0
      m_TileColorIndex: 0
      m_TileObjectToInstantiateIndex: 65535
      dummyAlignment: 0
      m_AllTileFlags: 1073741825
  - first: {x: -3, y: 1, z: 0}
    second:
      serializedVersion: 2
      m_TileIndex: 79
      m_TileSpriteIndex: 80
      m_TileMatrixIndex: 0
      m_TileColorIndex: 0
      m_TileObjectToInstantiateIndex: 65535
      dummyAlignment: 0
      m_AllTileFlags: 1073741825
  - first: {x: -2, y: 1, z: 0}
    second:
      serializedVersion: 2
      m_TileIndex: 78
      m_TileSpriteIndex: 125
      m_TileMatrixIndex: 0
      m_TileColorIndex: 0
      m_TileObjectToInstantiateIndex: 65535
      dummyAlignment: 0
      m_AllTileFlags: 1073741825
  - first: {x: 0, y: 1, z: 0}
    second:
      serializedVersion: 2
      m_TileIndex: 109
      m_TileSpriteIndex: 121
      m_TileMatrixIndex: 0
      m_TileColorIndex: 0
      m_TileObjectToInstantiateIndex: 65535
      dummyAlignment: 0
      m_AllTileFlags: 1073741825
  - first: {x: 1, y: 1, z: 0}
    second:
      serializedVersion: 2
      m_TileIndex: 108
      m_TileSpriteIndex: 114
      m_TileMatrixIndex: 0
      m_TileColorIndex: 0
      m_TileObjectToInstantiateIndex: 65535
      dummyAlignment: 0
      m_AllTileFlags: 1073741825
  - first: {x: 2, y: 1, z: 0}
    second:
      serializedVersion: 2
      m_TileIndex: 107
      m_TileSpriteIndex: 111
      m_TileMatrixIndex: 0
      m_TileColorIndex: 0
      m_TileObjectToInstantiateIndex: 65535
      dummyAlignment: 0
      m_AllTileFlags: 1073741825
  - first: {x: 4, y: 1, z: 0}
    second:
      serializedVersion: 2
      m_TileIndex: 13
      m_TileSpriteIndex: 42
      m_TileMatrixIndex: 0
      m_TileColorIndex: 0
      m_TileObjectToInstantiateIndex: 65535
      dummyAlignment: 0
      m_AllTileFlags: 1073741825
  - first: {x: 5, y: 1, z: 0}
    second:
      serializedVersion: 2
      m_TileIndex: 12
      m_TileSpriteIndex: 41
      m_TileMatrixIndex: 0
      m_TileColorIndex: 0
      m_TileObjectToInstantiateIndex: 65535
      dummyAlignment: 0
      m_AllTileFlags: 1073741825
  - first: {x: 6, y: 1, z: 0}
    second:
      serializedVersion: 2
      m_TileIndex: 11
      m_TileSpriteIndex: 33
      m_TileMatrixIndex: 0
      m_TileColorIndex: 0
      m_TileObjectToInstantiateIndex: 65535
      dummyAlignment: 0
      m_AllTileFlags: 1073741825
  - first: {x: 12, y: 1, z: 0}
    second:
      serializedVersion: 2
      m_TileIndex: 119
      m_TileSpriteIndex: 117
      m_TileMatrixIndex: 0
      m_TileColorIndex: 0
      m_TileObjectToInstantiateIndex: 65535
      dummyAlignment: 0
      m_AllTileFlags: 1073741825
  - first: {x: 13, y: 1, z: 0}
    second:
      serializedVersion: 2
      m_TileIndex: 118
      m_TileSpriteIndex: 116
      m_TileMatrixIndex: 0
      m_TileColorIndex: 0
      m_TileObjectToInstantiateIndex: 65535
      dummyAlignment: 0
      m_AllTileFlags: 1073741825
  - first: {x: 14, y: 1, z: 0}
    second:
      serializedVersion: 2
      m_TileIndex: 117
      m_TileSpriteIndex: 115
      m_TileMatrixIndex: 0
      m_TileColorIndex: 0
      m_TileObjectToInstantiateIndex: 65535
      dummyAlignment: 0
      m_AllTileFlags: 1073741825
  - first: {x: -2, y: 2, z: 0}
    second:
      serializedVersion: 2
      m_TileIndex: 126
      m_TileSpriteIndex: 126
      m_TileMatrixIndex: 0
      m_TileColorIndex: 0
      m_TileObjectToInstantiateIndex: 65535
      dummyAlignment: 0
      m_AllTileFlags: 1073741825
  - first: {x: 0, y: 2, z: 0}
    second:
      serializedVersion: 2
      m_TileIndex: 93
      m_TileSpriteIndex: 109
      m_TileMatrixIndex: 0
      m_TileColorIndex: 0
      m_TileObjectToInstantiateIndex: 65535
      dummyAlignment: 0
      m_AllTileFlags: 1073741825
  - first: {x: 1, y: 2, z: 0}
    second:
      serializedVersion: 2
      m_TileIndex: 92
      m_TileSpriteIndex: 101
      m_TileMatrixIndex: 0
      m_TileColorIndex: 0
      m_TileObjectToInstantiateIndex: 65535
      dummyAlignment: 0
      m_AllTileFlags: 1073741825
  - first: {x: 2, y: 2, z: 0}
    second:
      serializedVersion: 2
      m_TileIndex: 91
      m_TileSpriteIndex: 79
      m_TileMatrixIndex: 0
      m_TileColorIndex: 0
      m_TileObjectToInstantiateIndex: 65535
      dummyAlignment: 0
      m_AllTileFlags: 1073741825
  - first: {x: 8, y: 2, z: 0}
    second:
      serializedVersion: 2
      m_TileIndex: 116
      m_TileSpriteIndex: 82
      m_TileMatrixIndex: 0
      m_TileColorIndex: 0
      m_TileObjectToInstantiateIndex: 65535
      dummyAlignment: 0
      m_AllTileFlags: 1073741825
  - first: {x: 9, y: 2, z: 0}
    second:
      serializedVersion: 2
      m_TileIndex: 115
      m_TileSpriteIndex: 76
      m_TileMatrixIndex: 0
      m_TileColorIndex: 0
      m_TileObjectToInstantiateIndex: 65535
      dummyAlignment: 0
      m_AllTileFlags: 1073741825
  - first: {x: 10, y: 2, z: 0}
    second:
      serializedVersion: 2
      m_TileIndex: 114
      m_TileSpriteIndex: 57
      m_TileMatrixIndex: 0
      m_TileColorIndex: 0
      m_TileObjectToInstantiateIndex: 65535
      dummyAlignment: 0
      m_AllTileFlags: 1073741825
  - first: {x: -5, y: 3, z: 0}
    second:
      serializedVersion: 2
      m_TileIndex: 113
      m_TileSpriteIndex: 49
      m_TileMatrixIndex: 0
      m_TileColorIndex: 0
      m_TileObjectToInstantiateIndex: 65535
      dummyAlignment: 0
      m_AllTileFlags: 1073741825
  - first: {x: -4, y: 3, z: 0}
    second:
      serializedVersion: 2
      m_TileIndex: 112
      m_TileSpriteIndex: 47
      m_TileMatrixIndex: 0
      m_TileColorIndex: 0
      m_TileObjectToInstantiateIndex: 65535
      dummyAlignment: 0
      m_AllTileFlags: 1073741825
  - first: {x: 0, y: 3, z: 0}
    second:
      serializedVersion: 2
      m_TileIndex: 29
      m_TileSpriteIndex: 66
      m_TileMatrixIndex: 0
      m_TileColorIndex: 0
      m_TileObjectToInstantiateIndex: 65535
      dummyAlignment: 0
      m_AllTileFlags: 1073741825
  - first: {x: 1, y: 3, z: 0}
    second:
      serializedVersion: 2
      m_TileIndex: 28
      m_TileSpriteIndex: 63
      m_TileMatrixIndex: 0
      m_TileColorIndex: 0
      m_TileObjectToInstantiateIndex: 65535
      dummyAlignment: 0
      m_AllTileFlags: 1073741825
  - first: {x: 2, y: 3, z: 0}
    second:
      serializedVersion: 2
      m_TileIndex: 27
      m_TileSpriteIndex: 62
      m_TileMatrixIndex: 0
      m_TileColorIndex: 0
      m_TileObjectToInstantiateIndex: 65535
      dummyAlignment: 0
      m_AllTileFlags: 1073741825
  - first: {x: 4, y: 3, z: 0}
    second:
      serializedVersion: 2
      m_TileIndex: 4
      m_TileSpriteIndex: 13
      m_TileMatrixIndex: 0
      m_TileColorIndex: 0
      m_TileObjectToInstantiateIndex: 65535
      dummyAlignment: 0
      m_AllTileFlags: 1073741825
  - first: {x: 5, y: 3, z: 0}
    second:
      serializedVersion: 2
      m_TileIndex: 3
      m_TileSpriteIndex: 12
      m_TileMatrixIndex: 0
      m_TileColorIndex: 0
      m_TileObjectToInstantiateIndex: 65535
      dummyAlignment: 0
      m_AllTileFlags: 1073741825
  - first: {x: 6, y: 3, z: 0}
    second:
      serializedVersion: 2
      m_TileIndex: 2
      m_TileSpriteIndex: 4
      m_TileMatrixIndex: 0
      m_TileColorIndex: 0
      m_TileObjectToInstantiateIndex: 65535
      dummyAlignment: 0
      m_AllTileFlags: 1073741825
  - first: {x: -5, y: 4, z: 0}
    second:
      serializedVersion: 2
      m_TileIndex: 97
      m_TileSpriteIndex: 45
      m_TileMatrixIndex: 0
      m_TileColorIndex: 0
      m_TileObjectToInstantiateIndex: 65535
      dummyAlignment: 0
      m_AllTileFlags: 1073741825
  - first: {x: -4, y: 4, z: 0}
    second:
      serializedVersion: 2
      m_TileIndex: 96
      m_TileSpriteIndex: 44
      m_TileMatrixIndex: 0
      m_TileColorIndex: 0
      m_TileObjectToInstantiateIndex: 65535
      dummyAlignment: 0
      m_AllTileFlags: 1073741825
  - first: {x: 12, y: 4, z: 0}
    second:
      serializedVersion: 2
      m_TileIndex: 45
      m_TileSpriteIndex: 72
      m_TileMatrixIndex: 0
      m_TileColorIndex: 0
      m_TileObjectToInstantiateIndex: 65535
      dummyAlignment: 0
      m_AllTileFlags: 1073741825
  - first: {x: 13, y: 4, z: 0}
    second:
      serializedVersion: 2
      m_TileIndex: 44
      m_TileSpriteIndex: 65
      m_TileMatrixIndex: 0
      m_TileColorIndex: 0
      m_TileObjectToInstantiateIndex: 65535
      dummyAlignment: 0
      m_AllTileFlags: 1073741825
  - first: {x: 14, y: 4, z: 0}
    second:
      serializedVersion: 2
      m_TileIndex: 43
      m_TileSpriteIndex: 52
      m_TileMatrixIndex: 0
      m_TileColorIndex: 0
      m_TileObjectToInstantiateIndex: 65535
      dummyAlignment: 0
      m_AllTileFlags: 1073741825
  - first: {x: 7, y: 5, z: 0}
    second:
      serializedVersion: 2
      m_TileIndex: 84
      m_TileSpriteIndex: 120
      m_TileMatrixIndex: 0
      m_TileColorIndex: 0
      m_TileObjectToInstantiateIndex: 65535
      dummyAlignment: 0
      m_AllTileFlags: 1073741825
  - first: {x: 8, y: 5, z: 0}
    second:
      serializedVersion: 2
      m_TileIndex: 83
      m_TileSpriteIndex: 119
      m_TileMatrixIndex: 0
      m_TileColorIndex: 0
      m_TileObjectToInstantiateIndex: 65535
      dummyAlignment: 0
      m_AllTileFlags: 1073741825
  - first: {x: 9, y: 5, z: 0}
    second:
      serializedVersion: 2
      m_TileIndex: 82
      m_TileSpriteIndex: 93
      m_TileMatrixIndex: 0
      m_TileColorIndex: 0
      m_TileObjectToInstantiateIndex: 65535
      dummyAlignment: 0
      m_AllTileFlags: 1073741825
  - first: {x: 12, y: 5, z: 0}
    second:
      serializedVersion: 2
      m_TileIndex: 61
      m_TileSpriteIndex: 61
      m_TileMatrixIndex: 0
      m_TileColorIndex: 0
      m_TileObjectToInstantiateIndex: 65535
      dummyAlignment: 0
      m_AllTileFlags: 1073741825
  - first: {x: 13, y: 5, z: 0}
    second:
      serializedVersion: 2
      m_TileIndex: 60
      m_TileSpriteIndex: 60
      m_TileMatrixIndex: 0
      m_TileColorIndex: 0
      m_TileObjectToInstantiateIndex: 65535
      dummyAlignment: 0
      m_AllTileFlags: 1073741825
  - first: {x: 14, y: 5, z: 0}
    second:
      serializedVersion: 2
      m_TileIndex: 59
      m_TileSpriteIndex: 59
      m_TileMatrixIndex: 0
      m_TileColorIndex: 0
      m_TileObjectToInstantiateIndex: 65535
      dummyAlignment: 0
      m_AllTileFlags: 1073741825
  - first: {x: -8, y: 6, z: 0}
    second:
      serializedVersion: 2
      m_TileIndex: 108
      m_TileSpriteIndex: 114
      m_TileMatrixIndex: 0
      m_TileColorIndex: 0
      m_TileObjectToInstantiateIndex: 65535
      dummyAlignment: 0
      m_AllTileFlags: 1073741825
  - first: {x: -7, y: 6, z: 0}
    second:
      serializedVersion: 2
      m_TileIndex: 29
      m_TileSpriteIndex: 66
      m_TileMatrixIndex: 0
      m_TileColorIndex: 0
      m_TileObjectToInstantiateIndex: 65535
      dummyAlignment: 0
      m_AllTileFlags: 1073741825
  - first: {x: -6, y: 6, z: 0}
    second:
      serializedVersion: 2
      m_TileIndex: 29
      m_TileSpriteIndex: 66
      m_TileMatrixIndex: 0
      m_TileColorIndex: 0
      m_TileObjectToInstantiateIndex: 65535
      dummyAlignment: 0
      m_AllTileFlags: 1073741825
  - first: {x: 7, y: 6, z: 0}
    second:
      serializedVersion: 2
      m_TileIndex: 100
      m_TileSpriteIndex: 118
      m_TileMatrixIndex: 0
      m_TileColorIndex: 0
      m_TileObjectToInstantiateIndex: 65535
      dummyAlignment: 0
      m_AllTileFlags: 1073741825
  - first: {x: 8, y: 6, z: 0}
    second:
      serializedVersion: 2
      m_TileIndex: 99
      m_TileSpriteIndex: 102
      m_TileMatrixIndex: 0
      m_TileColorIndex: 0
      m_TileObjectToInstantiateIndex: 65535
      dummyAlignment: 0
      m_AllTileFlags: 1073741825
  - first: {x: 9, y: 6, z: 0}
    second:
      serializedVersion: 2
      m_TileIndex: 98
      m_TileSpriteIndex: 100
      m_TileMatrixIndex: 0
      m_TileColorIndex: 0
      m_TileObjectToInstantiateIndex: 65535
      dummyAlignment: 0
      m_AllTileFlags: 1073741825
  - first: {x: 12, y: 6, z: 0}
    second:
      serializedVersion: 2
      m_TileIndex: 77
      m_TileSpriteIndex: 98
      m_TileMatrixIndex: 0
      m_TileColorIndex: 0
      m_TileObjectToInstantiateIndex: 65535
      dummyAlignment: 0
      m_AllTileFlags: 1073741825
  - first: {x: 13, y: 6, z: 0}
    second:
      serializedVersion: 2
      m_TileIndex: 76
      m_TileSpriteIndex: 95
      m_TileMatrixIndex: 0
      m_TileColorIndex: 0
      m_TileObjectToInstantiateIndex: 65535
      dummyAlignment: 0
      m_AllTileFlags: 1073741825
  - first: {x: 14, y: 6, z: 0}
    second:
      serializedVersion: 2
      m_TileIndex: 75
      m_TileSpriteIndex: 89
      m_TileMatrixIndex: 0
      m_TileColorIndex: 0
      m_TileObjectToInstantiateIndex: 65535
      dummyAlignment: 0
      m_AllTileFlags: 1073741825
  - first: {x: -8, y: 7, z: 0}
    second:
      serializedVersion: 2
      m_TileIndex: 29
      m_TileSpriteIndex: 66
      m_TileMatrixIndex: 0
      m_TileColorIndex: 0
      m_TileObjectToInstantiateIndex: 65535
      dummyAlignment: 0
      m_AllTileFlags: 1073741825
  - first: {x: -7, y: 7, z: 0}
    second:
      serializedVersion: 2
      m_TileIndex: 28
      m_TileSpriteIndex: 63
      m_TileMatrixIndex: 0
      m_TileColorIndex: 0
      m_TileObjectToInstantiateIndex: 65535
      dummyAlignment: 0
      m_AllTileFlags: 1073741825
  - first: {x: -6, y: 7, z: 0}
    second:
      serializedVersion: 2
      m_TileIndex: 123
      m_TileSpriteIndex: 122
      m_TileMatrixIndex: 0
      m_TileColorIndex: 0
      m_TileObjectToInstantiateIndex: 65535
      dummyAlignment: 0
      m_AllTileFlags: 1073741825
  - first: {x: -8, y: 8, z: 0}
    second:
      serializedVersion: 2
      m_TileIndex: 27
      m_TileSpriteIndex: 62
      m_TileMatrixIndex: 0
      m_TileColorIndex: 0
      m_TileObjectToInstantiateIndex: 65535
      dummyAlignment: 0
      m_AllTileFlags: 1073741825
  - first: {x: -7, y: 8, z: 0}
    second:
      serializedVersion: 2
      m_TileIndex: 29
      m_TileSpriteIndex: 66
      m_TileMatrixIndex: 0
      m_TileColorIndex: 0
      m_TileObjectToInstantiateIndex: 65535
      dummyAlignment: 0
      m_AllTileFlags: 1073741825
  - first: {x: -6, y: 8, z: 0}
    second:
      serializedVersion: 2
      m_TileIndex: 29
      m_TileSpriteIndex: 66
      m_TileMatrixIndex: 0
      m_TileColorIndex: 0
      m_TileObjectToInstantiateIndex: 65535
      dummyAlignment: 0
      m_AllTileFlags: 1073741825
  m_AnimatedTiles: {}
  m_TileAssetArray:
  - m_RefCount: 1
    m_Data: {fileID: 11400000, guid: fee0c3ee315fb1747a4de1dd3e7416d5, type: 2}
  - m_RefCount: 1
    m_Data: {fileID: 11400000, guid: 08dfb9988301b7449b91f96c1cfcc66e, type: 2}
  - m_RefCount: 1
    m_Data: {fileID: 11400000, guid: 8f7fc73c92c79cf46bad2ffec28e3e6c, type: 2}
  - m_RefCount: 1
    m_Data: {fileID: 11400000, guid: 12d7a65f1ea5322418d45f52e9f429ac, type: 2}
  - m_RefCount: 1
    m_Data: {fileID: 11400000, guid: 7a2b3e4eab841974a88c96dd7965e6bf, type: 2}
  - m_RefCount: 1
    m_Data: {fileID: 11400000, guid: 19b681f6585260a4d85a23027d1fe60d, type: 2}
  - m_RefCount: 1
    m_Data: {fileID: 11400000, guid: ec60ae8eb7b887a43af51124009c0f0b, type: 2}
  - m_RefCount: 1
    m_Data: {fileID: 11400000, guid: be6605e52b6c3e544963ffc025156c92, type: 2}
  - m_RefCount: 1
    m_Data: {fileID: 11400000, guid: 5b6c0ee34314812438a0805638b6bbb3, type: 2}
  - m_RefCount: 1
    m_Data: {fileID: 11400000, guid: 79c08716dea6f0f4a9dfe5cbecb45ba0, type: 2}
  - m_RefCount: 1
    m_Data: {fileID: 11400000, guid: 26c6b6752524a964d8b1bb99dfb008e8, type: 2}
  - m_RefCount: 1
    m_Data: {fileID: 11400000, guid: 76c327e60c7f9d947bb1471a2ebc4ab0, type: 2}
  - m_RefCount: 1
    m_Data: {fileID: 11400000, guid: 96e249bee4afe6a419503cb0181dfa8a, type: 2}
  - m_RefCount: 1
    m_Data: {fileID: 11400000, guid: f8ae40ac954d07f4294e910b754e14cc, type: 2}
  - m_RefCount: 1
    m_Data: {fileID: 11400000, guid: 93a83c153fba880489df7074bc85b8d9, type: 2}
  - m_RefCount: 1
    m_Data: {fileID: 11400000, guid: 9888c93c304691b489633f0fe7d192bd, type: 2}
  - m_RefCount: 1
    m_Data: {fileID: 11400000, guid: 910a39619f9bdab44a39cb7f240de392, type: 2}
  - m_RefCount: 1
    m_Data: {fileID: 11400000, guid: 3349ea11389ffeb459a25fee15ede678, type: 2}
  - m_RefCount: 1
    m_Data: {fileID: 11400000, guid: c67ab2e58a929414cb70fb539ede32f7, type: 2}
  - m_RefCount: 1
    m_Data: {fileID: 11400000, guid: ecd4a0a8179aaa240874e84eda0e00ee, type: 2}
  - m_RefCount: 1
    m_Data: {fileID: 11400000, guid: 43e01a773cd66754fb83e0f3486534cb, type: 2}
  - m_RefCount: 1
    m_Data: {fileID: 11400000, guid: dd9cdabfd328b9943a8ab2814d09d0f8, type: 2}
  - m_RefCount: 1
    m_Data: {fileID: 11400000, guid: 47686be6505d85a4da820a8e6a998188, type: 2}
  - m_RefCount: 1
    m_Data: {fileID: 11400000, guid: bedb15dd9af0f934eadadcd322e9807e, type: 2}
  - m_RefCount: 1
    m_Data: {fileID: 11400000, guid: d3300289dab647b4898322dfdd833b3a, type: 2}
  - m_RefCount: 1
    m_Data: {fileID: 11400000, guid: 5e9d3856ed8e8624bb2cade1ac01598e, type: 2}
  - m_RefCount: 1
    m_Data: {fileID: 11400000, guid: 8a232673c31ad22429ad5f1f36f5e3bb, type: 2}
  - m_RefCount: 2
    m_Data: {fileID: 11400000, guid: 1036f55f5a788b540ad2ff73bae282e4, type: 2}
  - m_RefCount: 2
    m_Data: {fileID: 11400000, guid: 63da7bc6915c7974398c7e7f0b95e64f, type: 2}
  - m_RefCount: 6
    m_Data: {fileID: 11400000, guid: 015b0dc32a439dc4590824bc3bb897fc, type: 2}
  - m_RefCount: 1
    m_Data: {fileID: 11400000, guid: 152da835b3f437649a4e076fb29b4d9e, type: 2}
  - m_RefCount: 1
    m_Data: {fileID: 11400000, guid: 78f56ea316c95ab4c8e31dc0e6e6d1cb, type: 2}
  - m_RefCount: 1
    m_Data: {fileID: 11400000, guid: 43010cde3d708684aa07b5639e50fe88, type: 2}
  - m_RefCount: 1
    m_Data: {fileID: 11400000, guid: 5ece6b2e8c028c04480ecd60aadcdf15, type: 2}
  - m_RefCount: 1
    m_Data: {fileID: 11400000, guid: 49582f85aa0119346b00569688d5bfd3, type: 2}
  - m_RefCount: 1
    m_Data: {fileID: 11400000, guid: 207ddfcad3f46f6468fb3c49830498c0, type: 2}
  - m_RefCount: 1
    m_Data: {fileID: 11400000, guid: 0da84a779161af749902ff5e4eda02c4, type: 2}
  - m_RefCount: 1
    m_Data: {fileID: 11400000, guid: 200907cc793d7e240ac39265927f8a29, type: 2}
  - m_RefCount: 1
    m_Data: {fileID: 11400000, guid: 910e1d726c8416944b531fef3bebf282, type: 2}
  - m_RefCount: 1
    m_Data: {fileID: 11400000, guid: 1677da8511ff2d848aee19707e88eec3, type: 2}
  - m_RefCount: 1
    m_Data: {fileID: 11400000, guid: 5de197db46d7be341bf40e729797be42, type: 2}
  - m_RefCount: 1
    m_Data: {fileID: 11400000, guid: b9851a0efdc027b40a072384ac26ee13, type: 2}
  - m_RefCount: 1
    m_Data: {fileID: 11400000, guid: 8ccf51839ac5cd944b341fd28ac8e2e7, type: 2}
  - m_RefCount: 1
    m_Data: {fileID: 11400000, guid: afdc76376a3ea1e4a9e8b01480c777a9, type: 2}
  - m_RefCount: 1
    m_Data: {fileID: 11400000, guid: f46d28b42fed2e24ea1495c68918386d, type: 2}
  - m_RefCount: 1
    m_Data: {fileID: 11400000, guid: 9fd85fe747e104c4cb8c85d3e98a057d, type: 2}
  - m_RefCount: 1
    m_Data: {fileID: 11400000, guid: 7a2cf968c76df184d8398675bf8564c7, type: 2}
  - m_RefCount: 1
    m_Data: {fileID: 11400000, guid: e3b5b7e0344d8d84dbc333cfbc60fc5d, type: 2}
  - m_RefCount: 1
    m_Data: {fileID: 11400000, guid: 195facd601cd7514a8b400531dbfa9e7, type: 2}
  - m_RefCount: 1
    m_Data: {fileID: 11400000, guid: c47d6c4cd4fabde43babc536013a774b, type: 2}
  - m_RefCount: 1
    m_Data: {fileID: 11400000, guid: 8861f4bd48ea4bb4888f36b82cf2b3f2, type: 2}
  - m_RefCount: 1
    m_Data: {fileID: 11400000, guid: 0d8c3ed79384b8b46aed7c4e477e746b, type: 2}
  - m_RefCount: 1
    m_Data: {fileID: 11400000, guid: d7eec1643e035044fa6539cf63e5dfdd, type: 2}
  - m_RefCount: 1
    m_Data: {fileID: 11400000, guid: e07d2993f7fbaba4aada6c694a45e3e6, type: 2}
  - m_RefCount: 1
    m_Data: {fileID: 11400000, guid: 6522694fc813f5a46857b8417a67f374, type: 2}
  - m_RefCount: 1
    m_Data: {fileID: 11400000, guid: 1345202543b3f0c45b4dd41b6b93fc08, type: 2}
  - m_RefCount: 1
    m_Data: {fileID: 11400000, guid: 4af668e70549e9b4e9cca6dbe3b2b3f7, type: 2}
  - m_RefCount: 1
    m_Data: {fileID: 11400000, guid: ceed2b402da7397489e3129d9021e3b8, type: 2}
  - m_RefCount: 1
    m_Data: {fileID: 11400000, guid: e8cb6e038811e544e9219794544b86e5, type: 2}
  - m_RefCount: 1
    m_Data: {fileID: 11400000, guid: 9e377910a8894e64bae47e552ff0b88a, type: 2}
  - m_RefCount: 1
    m_Data: {fileID: 11400000, guid: d88b66f77159f8c4083100e40205c5e7, type: 2}
  - m_RefCount: 1
    m_Data: {fileID: 11400000, guid: 07f17117b5328bf4b9dafaf955489dcb, type: 2}
  - m_RefCount: 1
    m_Data: {fileID: 11400000, guid: 5d08199a54472c746b9c8d350f18ec3f, type: 2}
  - m_RefCount: 1
    m_Data: {fileID: 11400000, guid: 6c2bf90ebed238541a849b140c948614, type: 2}
  - m_RefCount: 1
    m_Data: {fileID: 11400000, guid: 52fabf039741114459046d9ff64e103c, type: 2}
  - m_RefCount: 1
    m_Data: {fileID: 11400000, guid: 7998191ff9a8ce54c9bfc2bc4154bb56, type: 2}
  - m_RefCount: 1
    m_Data: {fileID: 11400000, guid: e476227ca95d43a43ae34a2bb3a8f0e0, type: 2}
  - m_RefCount: 1
    m_Data: {fileID: 11400000, guid: 5b5345fd9f35e334f92668c4ea4cf8f8, type: 2}
  - m_RefCount: 1
    m_Data: {fileID: 11400000, guid: 88b2b98f0e5b0b447a36ac808f220e80, type: 2}
  - m_RefCount: 1
    m_Data: {fileID: 11400000, guid: 3e859cc2bd8c44f4fb139edfd78e6045, type: 2}
  - m_RefCount: 1
    m_Data: {fileID: 11400000, guid: 6172ec0760f0cd44198751696e53ced4, type: 2}
  - m_RefCount: 1
    m_Data: {fileID: 11400000, guid: 44f0532c828bf9b418a26ee95e0ad40e, type: 2}
  - m_RefCount: 1
    m_Data: {fileID: 11400000, guid: 009352205f27c98419909da6ff2e4f1a, type: 2}
  - m_RefCount: 1
    m_Data: {fileID: 11400000, guid: f540b2aee825b4f40a7081d00fe045c3, type: 2}
  - m_RefCount: 1
    m_Data: {fileID: 11400000, guid: 3c514906013ad4f479d04aa2e4092ff0, type: 2}
  - m_RefCount: 1
    m_Data: {fileID: 11400000, guid: b5617673f8b46624aade677ae278f5a8, type: 2}
  - m_RefCount: 1
    m_Data: {fileID: 11400000, guid: e505ab0b3a94e1743bbda9544b14830f, type: 2}
  - m_RefCount: 1
    m_Data: {fileID: 11400000, guid: 6af2286f4e572cd42a88559e40fdd340, type: 2}
  - m_RefCount: 1
    m_Data: {fileID: 11400000, guid: f1327f6137e64834eae6b08c8b8223f1, type: 2}
  - m_RefCount: 1
    m_Data: {fileID: 11400000, guid: 6e65877e15ad20f40b0d07fbfbc88e5e, type: 2}
  - m_RefCount: 1
    m_Data: {fileID: 11400000, guid: 9170115560902d84d9b2e65b1a267087, type: 2}
  - m_RefCount: 1
    m_Data: {fileID: 11400000, guid: fba70f313b005684b87c61e5439296d8, type: 2}
  - m_RefCount: 1
    m_Data: {fileID: 11400000, guid: f9ed9106d9ababd488d97455e089ec3e, type: 2}
  - m_RefCount: 1
    m_Data: {fileID: 11400000, guid: 1041a80f16ff7f1428ed7c17c1f42bca, type: 2}
  - m_RefCount: 1
    m_Data: {fileID: 11400000, guid: a270b2df4e1e82541b3f4442a0a4a0bd, type: 2}
  - m_RefCount: 1
    m_Data: {fileID: 11400000, guid: dba5bcf8a859b1d4d97fa3d7fdfa5be7, type: 2}
  - m_RefCount: 1
    m_Data: {fileID: 11400000, guid: 5fd5ffdffef221b49bd7cd7696f3e8c6, type: 2}
  - m_RefCount: 1
    m_Data: {fileID: 11400000, guid: f36b2f70a3d4ac346bcba16e69f08216, type: 2}
  - m_RefCount: 1
    m_Data: {fileID: 11400000, guid: 476ff3e4abddc5a41ad28214adb523f0, type: 2}
  - m_RefCount: 1
    m_Data: {fileID: 11400000, guid: f230da7e4d962584daf455780dd93e65, type: 2}
  - m_RefCount: 1
    m_Data: {fileID: 11400000, guid: 9f6646533ce32cd45a3140515641f347, type: 2}
  - m_RefCount: 1
    m_Data: {fileID: 11400000, guid: ef13f07bf8cbfc8478eb3c96bb99089b, type: 2}
  - m_RefCount: 1
    m_Data: {fileID: 11400000, guid: b92c8434bc38fb2459c916fa0880d543, type: 2}
  - m_RefCount: 1
    m_Data: {fileID: 11400000, guid: 95fce5b91d8cf444dba3fd2024ab29d4, type: 2}
  - m_RefCount: 1
    m_Data: {fileID: 11400000, guid: f51738065aafd5647898138d8926edfe, type: 2}
  - m_RefCount: 1
    m_Data: {fileID: 11400000, guid: 96999aaf20d35e246b5a5066ac249573, type: 2}
  - m_RefCount: 1
    m_Data: {fileID: 11400000, guid: f13397d69eee6714899f2cbdde45de38, type: 2}
  - m_RefCount: 1
    m_Data: {fileID: 11400000, guid: bdcd7ec85cb80e448b3c9221207f6f60, type: 2}
  - m_RefCount: 1
    m_Data: {fileID: 11400000, guid: 187e7766f78cd084d86701b3772bd97a, type: 2}
  - m_RefCount: 1
    m_Data: {fileID: 11400000, guid: 1cdca0f5513e7164bbc5bf5ef85ab01c, type: 2}
  - m_RefCount: 1
    m_Data: {fileID: 11400000, guid: 06c3873121dbc444097215752316479e, type: 2}
  - m_RefCount: 1
    m_Data: {fileID: 11400000, guid: 9c207713e87d27b4e83cdf27d647e1d1, type: 2}
  - m_RefCount: 1
    m_Data: {fileID: 11400000, guid: 43d6f92d4f18cb842aa95796ae361d94, type: 2}
  - m_RefCount: 1
    m_Data: {fileID: 11400000, guid: 807c138b79740d14881f38df559f5c58, type: 2}
  - m_RefCount: 1
    m_Data: {fileID: 11400000, guid: f8495fa0a1f8de848b002e6453e4fb20, type: 2}
  - m_RefCount: 1
    m_Data: {fileID: 11400000, guid: 5a32bceee1d7fac479cd25e477384c63, type: 2}
  - m_RefCount: 1
    m_Data: {fileID: 11400000, guid: 5455fc7c736664248bcc82a00b745f5e, type: 2}
  - m_RefCount: 1
    m_Data: {fileID: 11400000, guid: b28f3a0bd3bd92a4c8e2de42bfb819dc, type: 2}
  - m_RefCount: 2
    m_Data: {fileID: 11400000, guid: a8b8989ddfa263c40bfbe7f55d1e432c, type: 2}
  - m_RefCount: 1
    m_Data: {fileID: 11400000, guid: 58cd02f2d7b9bd845930bd1985818072, type: 2}
  - m_RefCount: 1
    m_Data: {fileID: 11400000, guid: f428d8c4e2f0d6e4e91be761c21b3b4e, type: 2}
  - m_RefCount: 1
    m_Data: {fileID: 11400000, guid: 22b8cc6e7c6d3a84ea0699adc31e3eb8, type: 2}
  - m_RefCount: 1
    m_Data: {fileID: 11400000, guid: 557a6227efcea62469e67fbc8bb02790, type: 2}
  - m_RefCount: 1
    m_Data: {fileID: 11400000, guid: da5bc765fcf3ecd4280703883d282d6c, type: 2}
  - m_RefCount: 1
    m_Data: {fileID: 11400000, guid: 7a82043741585c349b34ad7faa202d0c, type: 2}
  - m_RefCount: 1
    m_Data: {fileID: 11400000, guid: 3790aa3c2bc5d7a44bb23deb633e7809, type: 2}
  - m_RefCount: 1
    m_Data: {fileID: 11400000, guid: d534e8918dda86d4fada346af9f7bebf, type: 2}
  - m_RefCount: 1
    m_Data: {fileID: 11400000, guid: 1c0431b8b852dbe4982475cef4eab494, type: 2}
  - m_RefCount: 1
    m_Data: {fileID: 11400000, guid: 09e0ec5e172a96149b12bf1067b2dedf, type: 2}
  - m_RefCount: 1
    m_Data: {fileID: 11400000, guid: 637793206e26b1343af384b7dda55f04, type: 2}
  - m_RefCount: 1
    m_Data: {fileID: 11400000, guid: f7ba3ae38e7dbf84186a1c3f33d58095, type: 2}
  - m_RefCount: 1
    m_Data: {fileID: 11400000, guid: 342516ab59cece748b34bd753d992c8c, type: 2}
  - m_RefCount: 1
    m_Data: {fileID: 11400000, guid: b22b329bd350e0242a7bd73e225044d5, type: 2}
  - m_RefCount: 2
    m_Data: {fileID: 11400000, guid: 02006d403e5185245b7885b32f93b65e, type: 2}
  - m_RefCount: 1
    m_Data: {fileID: 11400000, guid: 801653fc55e707340a71aac59821f997, type: 2}
  - m_RefCount: 1
    m_Data: {fileID: 11400000, guid: ee8cd69cc0187a34088bd17b14f8e243, type: 2}
  - m_RefCount: 1
    m_Data: {fileID: 11400000, guid: 0962d868d54501240a1dee3c8c400fe6, type: 2}
  m_TileSpriteArray:
  - m_RefCount: 1
    m_Data: {fileID: -5094075432592294927, guid: 04d892e51f5334b468331e76245b52a3, type: 3}
  - m_RefCount: 1
    m_Data: {fileID: -3393311792599043978, guid: 04d892e51f5334b468331e76245b52a3, type: 3}
  - m_RefCount: 1
    m_Data: {fileID: -8887993299131670151, guid: 04d892e51f5334b468331e76245b52a3, type: 3}
  - m_RefCount: 1
    m_Data: {fileID: -8558721662302090408, guid: 04d892e51f5334b468331e76245b52a3, type: 3}
  - m_RefCount: 1
    m_Data: {fileID: 902773042312827701, guid: 04d892e51f5334b468331e76245b52a3, type: 3}
  - m_RefCount: 1
    m_Data: {fileID: 3421245086849777472, guid: 04d892e51f5334b468331e76245b52a3, type: 3}
  - m_RefCount: 1
    m_Data: {fileID: -8420670720628680731, guid: 04d892e51f5334b468331e76245b52a3, type: 3}
  - m_RefCount: 1
    m_Data: {fileID: -8717017754119436831, guid: 04d892e51f5334b468331e76245b52a3, type: 3}
  - m_RefCount: 1
    m_Data: {fileID: 4035501790466999928, guid: 04d892e51f5334b468331e76245b52a3, type: 3}
  - m_RefCount: 1
    m_Data: {fileID: -4716602535706096335, guid: 04d892e51f5334b468331e76245b52a3, type: 3}
  - m_RefCount: 1
    m_Data: {fileID: -1553117273407126458, guid: 04d892e51f5334b468331e76245b52a3, type: 3}
  - m_RefCount: 1
    m_Data: {fileID: 202502852184435092, guid: 04d892e51f5334b468331e76245b52a3, type: 3}
  - m_RefCount: 1
    m_Data: {fileID: -3402451715102035049, guid: 04d892e51f5334b468331e76245b52a3, type: 3}
  - m_RefCount: 1
    m_Data: {fileID: 7829212896737242494, guid: 04d892e51f5334b468331e76245b52a3, type: 3}
  - m_RefCount: 1
    m_Data: {fileID: 2702405904602438015, guid: 04d892e51f5334b468331e76245b52a3, type: 3}
  - m_RefCount: 1
    m_Data: {fileID: 7620405453212275206, guid: 04d892e51f5334b468331e76245b52a3, type: 3}
  - m_RefCount: 1
    m_Data: {fileID: 749326418515318850, guid: 04d892e51f5334b468331e76245b52a3, type: 3}
  - m_RefCount: 1
    m_Data: {fileID: -4080137071908401649, guid: 04d892e51f5334b468331e76245b52a3, type: 3}
  - m_RefCount: 1
    m_Data: {fileID: -702408572997326234, guid: 04d892e51f5334b468331e76245b52a3, type: 3}
  - m_RefCount: 1
    m_Data: {fileID: 5645451735475491846, guid: 04d892e51f5334b468331e76245b52a3, type: 3}
  - m_RefCount: 1
    m_Data: {fileID: -3639016157858113680, guid: 04d892e51f5334b468331e76245b52a3, type: 3}
  - m_RefCount: 1
    m_Data: {fileID: 7179352014698049699, guid: 04d892e51f5334b468331e76245b52a3, type: 3}
  - m_RefCount: 1
    m_Data: {fileID: 8913244904277133699, guid: 04d892e51f5334b468331e76245b52a3, type: 3}
  - m_RefCount: 1
    m_Data: {fileID: -5664050802494629814, guid: 04d892e51f5334b468331e76245b52a3, type: 3}
  - m_RefCount: 1
    m_Data: {fileID: -4146658962222183008, guid: 04d892e51f5334b468331e76245b52a3, type: 3}
  - m_RefCount: 1
    m_Data: {fileID: -8592424096107761443, guid: 04d892e51f5334b468331e76245b52a3, type: 3}
  - m_RefCount: 1
    m_Data: {fileID: -7673242495530757358, guid: 04d892e51f5334b468331e76245b52a3, type: 3}
  - m_RefCount: 1
    m_Data: {fileID: 8388207307120750826, guid: 04d892e51f5334b468331e76245b52a3, type: 3}
  - m_RefCount: 1
    m_Data: {fileID: -7914336775405316606, guid: 04d892e51f5334b468331e76245b52a3, type: 3}
  - m_RefCount: 1
    m_Data: {fileID: 6063359866685732961, guid: 04d892e51f5334b468331e76245b52a3, type: 3}
  - m_RefCount: 1
    m_Data: {fileID: 361865038524173698, guid: 04d892e51f5334b468331e76245b52a3, type: 3}
  - m_RefCount: 1
    m_Data: {fileID: -298017716872398204, guid: 04d892e51f5334b468331e76245b52a3, type: 3}
  - m_RefCount: 1
    m_Data: {fileID: 6803150025632533582, guid: 04d892e51f5334b468331e76245b52a3, type: 3}
  - m_RefCount: 1
    m_Data: {fileID: 7121432322982252667, guid: 04d892e51f5334b468331e76245b52a3, type: 3}
  - m_RefCount: 1
    m_Data: {fileID: 590150312393183423, guid: 04d892e51f5334b468331e76245b52a3, type: 3}
  - m_RefCount: 1
    m_Data: {fileID: 2316366620572707740, guid: 04d892e51f5334b468331e76245b52a3, type: 3}
  - m_RefCount: 1
    m_Data: {fileID: 6992147927975329872, guid: 04d892e51f5334b468331e76245b52a3, type: 3}
  - m_RefCount: 1
    m_Data: {fileID: -2988324970441796947, guid: 04d892e51f5334b468331e76245b52a3, type: 3}
  - m_RefCount: 1
    m_Data: {fileID: 2955584848549355173, guid: 04d892e51f5334b468331e76245b52a3, type: 3}
  - m_RefCount: 1
    m_Data: {fileID: -2890417086725145291, guid: 04d892e51f5334b468331e76245b52a3, type: 3}
  - m_RefCount: 1
    m_Data: {fileID: -5780151342473224253, guid: 04d892e51f5334b468331e76245b52a3, type: 3}
  - m_RefCount: 1
    m_Data: {fileID: 7421218225407433232, guid: 04d892e51f5334b468331e76245b52a3, type: 3}
  - m_RefCount: 1
    m_Data: {fileID: -529817384411311156, guid: 04d892e51f5334b468331e76245b52a3, type: 3}
  - m_RefCount: 1
    m_Data: {fileID: -979089462801025887, guid: 04d892e51f5334b468331e76245b52a3, type: 3}
  - m_RefCount: 1
    m_Data: {fileID: -2455287069041890485, guid: 04d892e51f5334b468331e76245b52a3, type: 3}
  - m_RefCount: 1
    m_Data: {fileID: 1761957491966546689, guid: 04d892e51f5334b468331e76245b52a3, type: 3}
  - m_RefCount: 1
    m_Data: {fileID: -3246565788825186472, guid: 04d892e51f5334b468331e76245b52a3, type: 3}
  - m_RefCount: 1
    m_Data: {fileID: -6264777607469435119, guid: 04d892e51f5334b468331e76245b52a3, type: 3}
  - m_RefCount: 1
    m_Data: {fileID: 7711548466176394848, guid: 04d892e51f5334b468331e76245b52a3, type: 3}
  - m_RefCount: 1
    m_Data: {fileID: 7979362951490992292, guid: 04d892e51f5334b468331e76245b52a3, type: 3}
  - m_RefCount: 1
    m_Data: {fileID: -5047225978721033957, guid: 04d892e51f5334b468331e76245b52a3, type: 3}
  - m_RefCount: 1
    m_Data: {fileID: 4182479260922306610, guid: 04d892e51f5334b468331e76245b52a3, type: 3}
  - m_RefCount: 1
    m_Data: {fileID: 666134904684700971, guid: 04d892e51f5334b468331e76245b52a3, type: 3}
  - m_RefCount: 1
    m_Data: {fileID: -3642419863204866038, guid: 04d892e51f5334b468331e76245b52a3, type: 3}
  - m_RefCount: 1
    m_Data: {fileID: 6295474923448991246, guid: 04d892e51f5334b468331e76245b52a3, type: 3}
  - m_RefCount: 1
    m_Data: {fileID: 1731697443031409149, guid: 04d892e51f5334b468331e76245b52a3, type: 3}
  - m_RefCount: 1
    m_Data: {fileID: 3242445901158374030, guid: 04d892e51f5334b468331e76245b52a3, type: 3}
  - m_RefCount: 1
    m_Data: {fileID: 2376107565742220442, guid: 04d892e51f5334b468331e76245b52a3, type: 3}
  - m_RefCount: 1
    m_Data: {fileID: 4928565880463290548, guid: 04d892e51f5334b468331e76245b52a3, type: 3}
  - m_RefCount: 1
    m_Data: {fileID: 2628091620012382583, guid: 04d892e51f5334b468331e76245b52a3, type: 3}
  - m_RefCount: 1
    m_Data: {fileID: -8129655836590701982, guid: 04d892e51f5334b468331e76245b52a3, type: 3}
  - m_RefCount: 1
    m_Data: {fileID: -8664873945852756419, guid: 04d892e51f5334b468331e76245b52a3, type: 3}
  - m_RefCount: 2
    m_Data: {fileID: 1873917168148291061, guid: 04d892e51f5334b468331e76245b52a3, type: 3}
  - m_RefCount: 2
    m_Data: {fileID: 7988907048659085410, guid: 04d892e51f5334b468331e76245b52a3, type: 3}
  - m_RefCount: 1
    m_Data: {fileID: 4544353558242898176, guid: 04d892e51f5334b468331e76245b52a3, type: 3}
  - m_RefCount: 1
    m_Data: {fileID: -6457282284672588498, guid: 04d892e51f5334b468331e76245b52a3, type: 3}
  - m_RefCount: 6
    m_Data: {fileID: 8490642196906846815, guid: 04d892e51f5334b468331e76245b52a3, type: 3}
  - m_RefCount: 1
    m_Data: {fileID: -3576083122866698956, guid: 04d892e51f5334b468331e76245b52a3, type: 3}
  - m_RefCount: 1
    m_Data: {fileID: -2994928844648702356, guid: 04d892e51f5334b468331e76245b52a3, type: 3}
  - m_RefCount: 1
    m_Data: {fileID: 6149306957867261499, guid: 04d892e51f5334b468331e76245b52a3, type: 3}
  - m_RefCount: 1
    m_Data: {fileID: 1618129922804063390, guid: 04d892e51f5334b468331e76245b52a3, type: 3}
  - m_RefCount: 1
    m_Data: {fileID: -7945353237565122060, guid: 04d892e51f5334b468331e76245b52a3, type: 3}
  - m_RefCount: 1
    m_Data: {fileID: -185618232069188130, guid: 04d892e51f5334b468331e76245b52a3, type: 3}
  - m_RefCount: 1
    m_Data: {fileID: 8571027462325331655, guid: 04d892e51f5334b468331e76245b52a3, type: 3}
  - m_RefCount: 1
    m_Data: {fileID: -2402063034215647507, guid: 04d892e51f5334b468331e76245b52a3, type: 3}
  - m_RefCount: 1
    m_Data: {fileID: -5619116058742842555, guid: 04d892e51f5334b468331e76245b52a3, type: 3}
  - m_RefCount: 1
    m_Data: {fileID: -8435285650344880516, guid: 04d892e51f5334b468331e76245b52a3, type: 3}
  - m_RefCount: 1
    m_Data: {fileID: 9478795197586167, guid: 04d892e51f5334b468331e76245b52a3, type: 3}
  - m_RefCount: 1
    m_Data: {fileID: 2229891254195283420, guid: 04d892e51f5334b468331e76245b52a3, type: 3}
  - m_RefCount: 1
    m_Data: {fileID: -3846989261494495056, guid: 04d892e51f5334b468331e76245b52a3, type: 3}
  - m_RefCount: 1
    m_Data: {fileID: 7969752024136316262, guid: 04d892e51f5334b468331e76245b52a3, type: 3}
  - m_RefCount: 1
    m_Data: {fileID: -1052767623090001999, guid: 04d892e51f5334b468331e76245b52a3, type: 3}
  - m_RefCount: 1
    m_Data: {fileID: 3400160013776356846, guid: 04d892e51f5334b468331e76245b52a3, type: 3}
  - m_RefCount: 1
    m_Data: {fileID: 403813026361821555, guid: 04d892e51f5334b468331e76245b52a3, type: 3}
  - m_RefCount: 1
    m_Data: {fileID: -6361271296530862326, guid: 04d892e51f5334b468331e76245b52a3, type: 3}
  - m_RefCount: 1
    m_Data: {fileID: -6416789122189490246, guid: 04d892e51f5334b468331e76245b52a3, type: 3}
  - m_RefCount: 1
    m_Data: {fileID: 5424348670514132440, guid: 04d892e51f5334b468331e76245b52a3, type: 3}
  - m_RefCount: 1
    m_Data: {fileID: -3131756468849351659, guid: 04d892e51f5334b468331e76245b52a3, type: 3}
  - m_RefCount: 1
    m_Data: {fileID: -6171851250645186540, guid: 04d892e51f5334b468331e76245b52a3, type: 3}
  - m_RefCount: 1
    m_Data: {fileID: -6140826305895023941, guid: 04d892e51f5334b468331e76245b52a3, type: 3}
  - m_RefCount: 1
    m_Data: {fileID: -1530432162528392, guid: 04d892e51f5334b468331e76245b52a3, type: 3}
  - m_RefCount: 1
    m_Data: {fileID: -251864790952300765, guid: 04d892e51f5334b468331e76245b52a3, type: 3}
  - m_RefCount: 1
    m_Data: {fileID: 9180185122099951743, guid: 04d892e51f5334b468331e76245b52a3, type: 3}
  - m_RefCount: 1
    m_Data: {fileID: 6296137254373669167, guid: 04d892e51f5334b468331e76245b52a3, type: 3}
  - m_RefCount: 1
    m_Data: {fileID: -3787535494737378260, guid: 04d892e51f5334b468331e76245b52a3, type: 3}
  - m_RefCount: 1
    m_Data: {fileID: 3212541487564439254, guid: 04d892e51f5334b468331e76245b52a3, type: 3}
  - m_RefCount: 1
    m_Data: {fileID: 4152910327465251759, guid: 04d892e51f5334b468331e76245b52a3, type: 3}
  - m_RefCount: 1
    m_Data: {fileID: 4865326696082551069, guid: 04d892e51f5334b468331e76245b52a3, type: 3}
  - m_RefCount: 1
    m_Data: {fileID: 5997434355426740714, guid: 04d892e51f5334b468331e76245b52a3, type: 3}
  - m_RefCount: 1
    m_Data: {fileID: 1432774421400288080, guid: 04d892e51f5334b468331e76245b52a3, type: 3}
  - m_RefCount: 1
    m_Data: {fileID: -4683339530408089196, guid: 04d892e51f5334b468331e76245b52a3, type: 3}
  - m_RefCount: 1
    m_Data: {fileID: -1542962388774721918, guid: 04d892e51f5334b468331e76245b52a3, type: 3}
  - m_RefCount: 1
    m_Data: {fileID: -1825608592083352178, guid: 04d892e51f5334b468331e76245b52a3, type: 3}
  - m_RefCount: 1
    m_Data: {fileID: -190942367214245151, guid: 04d892e51f5334b468331e76245b52a3, type: 3}
  - m_RefCount: 1
    m_Data: {fileID: -1400832232712754758, guid: 04d892e51f5334b468331e76245b52a3, type: 3}
  - m_RefCount: 1
    m_Data: {fileID: 2537453318863259956, guid: 04d892e51f5334b468331e76245b52a3, type: 3}
  - m_RefCount: 1
    m_Data: {fileID: -2996584346089854527, guid: 04d892e51f5334b468331e76245b52a3, type: 3}
  - m_RefCount: 1
    m_Data: {fileID: 3113743566345720758, guid: 04d892e51f5334b468331e76245b52a3, type: 3}
  - m_RefCount: 1
    m_Data: {fileID: -6201439586384320899, guid: 04d892e51f5334b468331e76245b52a3, type: 3}
  - m_RefCount: 1
    m_Data: {fileID: -2419274715696069116, guid: 04d892e51f5334b468331e76245b52a3, type: 3}
  - m_RefCount: 1
    m_Data: {fileID: 8876887957534861168, guid: 04d892e51f5334b468331e76245b52a3, type: 3}
  - m_RefCount: 1
    m_Data: {fileID: 1522158807346708707, guid: 04d892e51f5334b468331e76245b52a3, type: 3}
  - m_RefCount: 1
    m_Data: {fileID: 5584533179027898419, guid: 04d892e51f5334b468331e76245b52a3, type: 3}
  - m_RefCount: 1
    m_Data: {fileID: 4760556609404049016, guid: 04d892e51f5334b468331e76245b52a3, type: 3}
  - m_RefCount: 2
    m_Data: {fileID: -8003906554491563137, guid: 04d892e51f5334b468331e76245b52a3, type: 3}
  - m_RefCount: 1
    m_Data: {fileID: 778136270091268006, guid: 04d892e51f5334b468331e76245b52a3, type: 3}
  - m_RefCount: 1
    m_Data: {fileID: 4755373664117421245, guid: 04d892e51f5334b468331e76245b52a3, type: 3}
  - m_RefCount: 1
    m_Data: {fileID: 8266258911003420344, guid: 04d892e51f5334b468331e76245b52a3, type: 3}
  - m_RefCount: 1
    m_Data: {fileID: -7087341192871969019, guid: 04d892e51f5334b468331e76245b52a3, type: 3}
  - m_RefCount: 1
    m_Data: {fileID: -7195449788458874145, guid: 04d892e51f5334b468331e76245b52a3, type: 3}
  - m_RefCount: 1
    m_Data: {fileID: 1148596048466274273, guid: 04d892e51f5334b468331e76245b52a3, type: 3}
  - m_RefCount: 1
    m_Data: {fileID: 2311664880600967918, guid: 04d892e51f5334b468331e76245b52a3, type: 3}
  - m_RefCount: 2
    m_Data: {fileID: -6813189574185817458, guid: 04d892e51f5334b468331e76245b52a3, type: 3}
  - m_RefCount: 1
    m_Data: {fileID: -3772098893637499282, guid: 04d892e51f5334b468331e76245b52a3, type: 3}
  - m_RefCount: 1
    m_Data: {fileID: -4326689981271417894, guid: 04d892e51f5334b468331e76245b52a3, type: 3}
  - m_RefCount: 1
    m_Data: {fileID: 8934909955309115845, guid: 04d892e51f5334b468331e76245b52a3, type: 3}
  - m_RefCount: 1
    m_Data: {fileID: 21300000, guid: c7fa5d9b5835f2f4db82bbb0c3fb920b, type: 3}
  m_TileMatrixArray:
  - m_RefCount: 136
    m_Data:
      e00: 1
      e01: 0
      e02: 0
      e03: 0
      e10: 0
      e11: 1
      e12: 0
      e13: 0
      e20: 0
      e21: 0
      e22: 1
      e23: 0
      e30: 0
      e31: 0
      e32: 0
      e33: 1
  m_TileColorArray:
  - m_RefCount: 136
    m_Data: {r: 1, g: 1, b: 1, a: 1}
  m_TileObjectToInstantiateArray: []
  m_AnimationFrameRate: 1
  m_Color: {r: 1, g: 1, b: 1, a: 1}
  m_Origin: {x: -8, y: -12, z: 0}
  m_Size: {x: 24, y: 21, z: 1}
  m_TileAnchor: {x: 0.5, y: 0.5, z: 0}
  m_TileOrientation: 0
  m_TileOrientationMatrix:
    e00: 1
    e01: 0
    e02: 0
    e03: 0
    e10: 0
    e11: 1
    e12: 0
    e13: 0
    e20: 0
    e21: 0
    e22: 1
    e23: 0
    e30: 0
    e31: 0
    e32: 0
    e33: 1
--- !u!483693784 &5040335308262974747
TilemapRenderer:
  m_ObjectHideFlags: 0
  m_CorrespondingSourceObject: {fileID: 0}
  m_PrefabInstance: {fileID: 0}
  m_PrefabAsset: {fileID: 0}
  m_GameObject: {fileID: 3941439917195224746}
  m_Enabled: 1
  m_CastShadows: 0
  m_ReceiveShadows: 0
  m_DynamicOccludee: 0
  m_MotionVectors: 1
  m_LightProbeUsage: 0
  m_ReflectionProbeUsage: 0
  m_RayTracingMode: 0
  m_RayTraceProcedural: 0
  m_RenderingLayerMask: 1
  m_RendererPriority: 0
  m_Materials:
  - {fileID: 10754, guid: 0000000000000000f000000000000000, type: 0}
  m_StaticBatchInfo:
    firstSubMesh: 0
    subMeshCount: 0
  m_StaticBatchRoot: {fileID: 0}
  m_ProbeAnchor: {fileID: 0}
  m_LightProbeVolumeOverride: {fileID: 0}
  m_ScaleInLightmap: 1
  m_ReceiveGI: 1
  m_PreserveUVs: 0
  m_IgnoreNormalsForChartDetection: 0
  m_ImportantGI: 0
  m_StitchLightmapSeams: 1
  m_SelectedEditorRenderState: 0
  m_MinimumChartSize: 4
  m_AutoUVMaxDistance: 0.5
  m_AutoUVMaxAngle: 89
  m_LightmapParameters: {fileID: 0}
  m_SortingLayerID: 0
  m_SortingLayer: 0
  m_SortingOrder: 0
  m_ChunkSize: {x: 32, y: 32, z: 32}
  m_ChunkCullingBounds: {x: 0, y: 0, z: 0}
  m_MaxChunkCount: 16
  m_MaxFrameAge: 16
  m_SortOrder: 0
  m_Mode: 0
  m_DetectChunkCullingBounds: 0
  m_MaskInteraction: 0
--- !u!114 &7112029975732992701
MonoBehaviour:
  m_ObjectHideFlags: 0
  m_CorrespondingSourceObject: {fileID: 0}
  m_PrefabInstance: {fileID: 0}
  m_PrefabAsset: {fileID: 0}
  m_GameObject: {fileID: 0}
  m_Enabled: 1
  m_EditorHideFlags: 0
  m_Script: {fileID: 12395, guid: 0000000000000000e000000000000000, type: 0}
  m_Name: Palette Settings
  m_EditorClassIdentifier: 
  cellSizing: 0
  m_TransparencySortMode: 0
  m_TransparencySortAxis: {x: 0, y: 0, z: 1}
