%YAML 1.1
%TAG !u! tag:unity3d.com,2011:
--- !u!114 &11400000
MonoBehaviour:
  m_ObjectHideFlags: 0
  m_CorrespondingSourceObject: {fileID: 0}
  m_PrefabInstance: {fileID: 0}
  m_PrefabAsset: {fileID: 0}
  m_GameObject: {fileID: 0}
  m_Enabled: 1
  m_EditorHideFlags: 0
  m_Script: {fileID: 11500000, guid: 14d3552a41ed8d94c8d8d9f47e2f6192, type: 3}
  m_Name: FFXIVPlayer
  m_EditorClassIdentifier: 
  id: 4
  nom: FFXIVPlayer
  movimientos:
  - {fileID: 11400000, guid: 60652cd9049b1a14fbffd70a25c4c027, type: 2}
  - {fileID: 0}
  - {fileID: 0}
  - {fileID: 0}
  hpActual: -70
  hpMax: 90
  atk: 40
  def: 10
  vel: 78
  nivel: 1
  exp: 0
  equipo: {fileID: 0}
  tipoSexualidade: 0
  tipoActividadSesua: 4
  vivo: 1
  foto: {fileID: 21300000, guid: 471d82e71e357c948bdbdc4d10436b4c, type: 3}
  combatiendo: 0
