%YAML 1.1
%TAG !u! tag:unity3d.com,2011:
--- !u!114 &11400000
MonoBehaviour:
  m_ObjectHideFlags: 0
  m_CorrespondingSourceObject: {fileID: 0}
  m_PrefabInstance: {fileID: 0}
  m_PrefabAsset: {fileID: 0}
  m_GameObject: {fileID: 0}
  m_Enabled: 1
  m_EditorHideFlags: 0
  m_Script: {fileID: 11500000, guid: c541dbb7d2cbfba4aae525e94c244cc3, type: 3}
  m_Name: DildoMulticolor
  m_EditorClassIdentifier: 
  nombre: DildoMulticolor
  cantidad: 1
  funcion: 1
  curacion: 0
  statSumada: 2
  sumaStat: 20
  foto: {fileID: 21300000, guid: 9517a04d19daa2b44bb015b8bd5da2ae, type: 3}
