%YAML 1.1
%TAG !u! tag:unity3d.com,2011:
--- !u!114 &11400000
MonoBehaviour:
  m_ObjectHideFlags: 0
  m_CorrespondingSourceObject: {fileID: 0}
  m_PrefabInstance: {fileID: 0}
  m_PrefabAsset: {fileID: 0}
  m_GameObject: {fileID: 0}
  m_Enabled: 1
  m_EditorHideFlags: 0
  m_Script: {fileID: 11500000, guid: a39c8dd4ac520b141a1e40789bb269a7, type: 3}
  m_Name: Picarse
  m_EditorClassIdentifier: 
  nombre: Picarse
  poder: 15
  tipo: 0
  usosTotales: 10
  usos: 10
